Learn R for Psychology Research: A Crash Course
…
Tibbles are a modern take on data frames. They keep the features that have stood the test of time, and drop the features that used to be convenient but are now frustrating (i.e.converting character vectors to factors). [.html]

Put all our variable we made into a tibble

every variable we made above is seperated by a comma  these will become columns in our dataset

see help(data.frame) and help(tibble) for details

example_data <- tibble(subj_num, condition, dep_var, confound, gender, age)

# print example_data by just excecuting/running the name of the object
example_data

## # A tibble: 100 x 6
##    subj_num condition  dep_var  confound gender   age
##       <dbl>    <fctr>    <dbl>     <dbl> <fctr> <dbl>
##  1        1   control 2.255178 0.3321004  Woman    20
##  2        2   control 2.988974 1.8341847    Man    20
##  3        3   control 2.343929 1.0151652  Woman    23
##  4        4   control 3.937911 1.8542561    Man    24
##  5        5   control 1.506402 1.9812484  Woman    23
##  6        6   control 1.925485 0.3914081    Man    22
##  7        7   control 2.492243 1.1600241  Woman    24
##  8        8   control 5.499854 4.1322638    Man    22
##  9        9   control 2.725915 2.6264516  Woman    18
## 10       10   control 2.456229 2.2237304    Man    22
## # ... with 90 more rows
…
mutate() adds new variables to your tibble.

were adding new columns to our dataset, and were saving this new dataset as the same name as our old one (i.e., like changing an Excel file and saving with the same name)

see help(mutate) for details

example_data <- example_data %>%
  mutate(dep_var_z = dep_var %>% scale() %>% parse_number(),
         confound_z = confound %>% scale() %>% parse_number())

# print example_data by just excecuting/running the name of the object
example_data

## # A tibble: 100 x 8
##    subj_num condition  dep_var  confound gender   age   dep_var_z
##       <dbl>    <fctr>    <dbl>     <dbl> <fctr> <dbl>       <dbl>
##  1        1   control 2.255178 0.3321004  Woman    20 -1.05691883
##  2        2   control 2.988974 1.8341847    Man    20 -0.63126185
##  3        3   control 2.343929 1.0151652  Woman    23 -1.00543656
##  4        4   control 3.937911 1.8542561    Man    24 -0.08080653
##  5        5   control 1.506402 1.9812484  Woman    23 -1.49126542
##  6        6   control 1.925485 0.3914081    Man    22 -1.24816598
##  7        7   control 2.492243 1.1600241  Woman    24 -0.91940301
##  8        8   control 5.499854 4.1322638    Man    22  0.82523899
##  9        9   control 2.725915 2.6264516  Woman    18 -0.78385581
## 10       10   control 2.456229 2.2237304    Man    22 -0.94029390
## # ... with 90 more rows, and 1 more variables: confound_z <dbl>

Select specific columns

select() selects your tibbles variables by name and in the exact order you specify.

see help(select) for details

example_data %>% 
  select(subj_num, condition, dep_var)

## # A tibble: 100 x 3
##    subj_num condition  dep_var
##       <dbl>    <fctr>    <dbl>
##  1        1   control 2.255178
##  2        2   control 2.988974
##  3        3   control 2.343929
##  4        4   control 3.937911
##  5        5   control 1.506402
##  6        6   control 1.925485
##  7        7   control 2.492243
##  8        8   control 5.499854
##  9        9   control 2.725915
## 10       10   control 2.456229
## # ... with 90 more rows

Filter specific rows

filter() returns rows that all meet some condition you give it.

Note, == means exactly equal to. See ?Comparison.

see help(filter) for details

example_data %>% 
  filter(condition == "control")

## # A tibble: 50 x 8
##    subj_num condition  dep_var  confound gender   age   dep_var_z
##       <dbl>    <fctr>    <dbl>     <dbl> <fctr> <dbl>       <dbl>
##  1        1   control 2.255178 0.3321004  Woman    20 -1.05691883
##  2        2   control 2.988974 1.8341847    Man    20 -0.63126185
##  3        3   control 2.343929 1.0151652  Woman    23 -1.00543656
##  4        4   control 3.937911 1.8542561    Man    24 -0.08080653
##  5        5   control 1.506402 1.9812484  Woman    23 -1.49126542
##  6        6   control 1.925485 0.3914081    Man    22 -1.24816598
##  7        7   control 2.492243 1.1600241  Woman    24 -0.91940301
##  8        8   control 5.499854 4.1322638    Man    22  0.82523899
##  9        9   control 2.725915 2.6264516  Woman    18 -0.78385581
## 10       10   control 2.456229 2.2237304    Man    22 -0.94029390
## # ... with 40 more rows, and 1 more variables: confound_z <dbl>
…
SPSS .sav file: read_sav()

SPSS

see help(read_sav) for details

# path to where file lives on your computer
coffee_filepath <- "data/coffee.sav"

coffee_data <- coffee_filepath %>% read_sav()

# print coffee_data by just excecuting/running the name of the object
coffee_data

## # A tibble: 138 x 3
##    image brand  freq
##    <dbl> <dbl> <dbl>
##  1     1     1    82
##  2     2     1    96
##  3     3     1    72
##  4     4     1   101
##  5     5     1    66
##  6     6     1     6
##  7     7     1    47
##  8     8     1     1
##  9     9     1    16
## 10    10     1    60
## # ... with 128 more rows
…
