Learn R for Psychology Research: A Crash Course
…
Tibbles are a modern take on data frames. They keep the features that have stood the test of time, and drop the features that used to be convenient but are now frustrating (i.e.converting character vectors to factors). Source: https://cran.r-project.org/web/packages/tibble/vignettes/tibble.html

Put all our variable we made into a tibble

every variable we made above is seperated by a comma  these will become columns in our dataset

see help(data.frame) and help(tibble) for details

example_data <- tibble(subj_num, condition, dep_var, confound, gender, age)

# print example_data by just excecuting/running the name of the object
example_data

## # A tibble: 100 x 6
##    subj_num condition  dep_var   confound gender   age
##       <dbl>    <fctr>    <dbl>      <dbl> <fctr> <dbl>
##  1        1   control 2.741650 0.94109089  Woman    20
##  2        2   control 2.337741 0.19153978    Man    21
##  3        3   control 3.861642 2.39818134  Woman    20
##  4        4   control 2.498773 2.79058051    Man    24
##  5        5   control 1.574277 1.46516168  Woman    19
##  6        6   control 1.523182 1.42716855    Man    23
##  7        7   control 4.104267 2.66808249  Woman    18
##  8        8   control 3.850895 0.04528494    Man    21
##  9        9   control 3.911195 1.85523831  Woman    21
## 10       10   control 3.457445 3.26606369    Man    21
## # ... with 90 more rows
…
mutate() adds new variables to your tibble.

were adding new columns to our dataset, and were saving this new dataset as the same name as our old one (i.e., like changing an Excel file and saving with the same name)

see help(mutate) for details

example_data <- example_data %>%
  mutate(dep_var_z = dep_var %>% scale() %>% parse_number(),
         confound_z = confound %>% scale() %>% parse_number())

# print example_data by just excecuting/running the name of the object
example_data

## # A tibble: 100 x 8
##    subj_num condition  dep_var   confound gender   age    dep_var_z
##       <dbl>    <fctr>    <dbl>      <dbl> <fctr> <dbl>        <dbl>
##  1        1   control 2.741650 0.94109089  Woman    20 -0.666613905
##  2        2   control 2.337741 0.19153978    Man    21 -0.895663252
##  3        3   control 3.861642 2.39818134  Woman    20 -0.031487425
##  4        4   control 2.498773 2.79058051    Man    24 -0.804345052
##  5        5   control 1.574277 1.46516168  Woman    19 -1.328609601
##  6        6   control 1.523182 1.42716855    Man    23 -1.357584218
##  7        7   control 4.104267 2.66808249  Woman    18  0.106100658
##  8        8   control 3.850895 0.04528494    Man    21 -0.037581609
##  9        9   control 3.911195 1.85523831  Woman    21 -0.003386803
## 10       10   control 3.457445 3.26606369    Man    21 -0.260699993
## # ... with 90 more rows, and 1 more variables: confound_z <dbl>

Select specific columns

select() selects your tibbles variables by name and in the exact order you specify.

see help(select) for details

example_data %>% 
  select(subj_num, condition, dep_var)

## # A tibble: 100 x 3
##    subj_num condition  dep_var
##       <dbl>    <fctr>    <dbl>
##  1        1   control 2.741650
##  2        2   control 2.337741
##  3        3   control 3.861642
##  4        4   control 2.498773
##  5        5   control 1.574277
##  6        6   control 1.523182
##  7        7   control 4.104267
##  8        8   control 3.850895
##  9        9   control 3.911195
## 10       10   control 3.457445
## # ... with 90 more rows

Filter specific rows

filter() returns rows that all meet some condition you give it.

Note, == means exactly equal to. See ?Comparison.

see help(filter) for details

example_data %>% 
  filter(condition == "control")

## # A tibble: 50 x 8
##    subj_num condition  dep_var   confound gender   age    dep_var_z
##       <dbl>    <fctr>    <dbl>      <dbl> <fctr> <dbl>        <dbl>
##  1        1   control 2.741650 0.94109089  Woman    20 -0.666613905
##  2        2   control 2.337741 0.19153978    Man    21 -0.895663252
##  3        3   control 3.861642 2.39818134  Woman    20 -0.031487425
##  4        4   control 2.498773 2.79058051    Man    24 -0.804345052
##  5        5   control 1.574277 1.46516168  Woman    19 -1.328609601
##  6        6   control 1.523182 1.42716855    Man    23 -1.357584218
##  7        7   control 4.104267 2.66808249  Woman    18  0.106100658
##  8        8   control 3.850895 0.04528494    Man    21 -0.037581609
##  9        9   control 3.911195 1.85523831  Woman    21 -0.003386803
## 10       10   control 3.457445 3.26606369    Man    21 -0.260699993
## # ... with 40 more rows, and 1 more variables: confound_z <dbl>
…
SPSS .sav file: read_sav()

SPSS

see help(read_sav) for details

# path to where file lives on your computer
coffee_filepath <- "data/coffee.sav"

coffee_data <- coffee_filepath %>% read_sav()

# print coffee_data by just excecuting/running the name of the object
coffee_data

## # A tibble: 138 x 3
##    image brand  freq
##    <dbl> <dbl> <dbl>
##  1     1     1    82
##  2     2     1    96
##  3     3     1    72
##  4     4     1   101
##  5     5     1    66
##  6     6     1     6
##  7     7     1    47
##  8     8     1     1
##  9     9     1    16
## 10    10     1    60
## # ... with 128 more rows
…
